vocabulary_id;vocabulary_name;vocabulary_reference;vocabulary_version;vocabulary_concept_id
Lille AIMS;Lille AIMS;Lille University Hospital generated;2020;2000000001
Lille PMSI;Lille PMSI;Lille University Hospital generated;2020;2000000002
Lille AIMS Unit;Lille AIMS Unit;Lille University Hospital generated;2020;2000000003
Lille AIMS Meas;Lille AIMS Measurement;Lille University Hospital generated;2020;2000000004
Lille AIMS Event;Lille AIMS Event;Lille University Hospital generated;2020;2000000005
Lille AIMS Drug;Lille AIMS Drug;Lille University Hospital generated;2020;2000000006
Lille Episode;Lille Peroperative Episode;Lille University Hospital generated;2020;2000000007
Lille Indicator;Lille Peroperative Indicator;Lille University Hospital generated;2020;2000000008
Lille Threshold;Lille Peroperative Threshold;Lille University Hospital generated;2020;2000000009
Lille CCAM;Lille PMSI CCAM;Lille University Hospital generated;2020;2000000010
Lille CIM10;Lille PMSI CIM10;Lille University Hospital generated;2020;2000000011
Lille AIMS Route;Lille AIMS Route;Lille University Hospital generated;2020;2000000011
