concept_id;concept_name;domain_id;vocabulary_id;concept_class_id;standard_concept;concept_code;valid_start_date;valid_end_date;invalid_reason
2100000000;Operating Room Visit;Visit;Visit;Visit;S;OMOP_ORV;2020-01-01;2099-12-31;
2100000001;Post-Anesthesia Care Unit Visit;Visit;Visit;Visit;S;OMOP_PACUV;2020-01-01;2099-12-31;
2100000002;From monitor;Type Concept;Meas Type;Meas Type;S;OMOP_FM;2020-01-01;2099-12-31;
