concept_id;concept_name
;Mean value of mean arterial pressure during anesthesia
;Minimum value of mean arterial pressure during anesthesia
;Maximum value of mean arterial pressure during anesthesia
;Median value of mean arterial pressure during anesthesia
;Mean value of mean arterial pressure during surgery
;Minimum value of mean arterial pressure during surgery
;Maximum value of mean arterial pressure during surgery
;Median value of mean arterial pressure during surgery
;Mean value of mean arterial pressure during induction - incision
;Minimum value of mean arterial pressure during induction - incision
;Maximum value of mean arterial pressure during induction - incision
;Median value of mean arterial pressure during induction - incision
;Mean value of mean arterial pressure during arrival - induction
;Minimum value of mean arterial pressure during arrival - induction
;Maximum value of mean arterial pressure during arrival - induction
;Median value of mean arterial pressure during arrival - induction
;
;Mean value of diastolic arterial pressure during anesthesia
;Minimum value of diastolic arterial pressure during anesthesia
;Maximum value of diastolic arterial pressure during anesthesia
;Median value of diastolic arterial pressure during anesthesia
;Mean value of diastolic arterial pressure during surgery
;Minimum value of diastolic arterial pressure during surgery
;Maximum value of diastolic arterial pressure during surgery
;Median value of diastolic arterial pressure during surgery
;Mean value of diastolic arterial pressure during induction - incision
;Minimum value of diastolic arterial pressure during induction - incision
;Maximum value of diastolic arterial pressure during induction - incision
;Median value of diastolic arterial pressure during induction - incision
;Mean value of diastolic arterial pressure during arrival - induction
;Minimum value of diastolic arterial pressure during arrival - induction
;Maximum value of diastolic arterial pressure during arrival - induction
;Median value of diastolic arterial pressure during arrival - induction
;
;Mean value of systolic arterial pressure during anesthesia
;Minimum value of systolic arterial pressure during anesthesia
;Maximum value of systolic arterial pressure during anesthesia
;Median value of systolic arterial pressure during anesthesia
;Mean value of systolic arterial pressure during surgery
;Minimum value of systolic arterial pressure during surgery
;Maximum value of systolic arterial pressure during surgery
;Median value of systolic arterial pressure during surgery
;Mean value of systolic arterial pressure during induction - incision
;Minimum value of systolic arterial pressure during induction - incision
;Maximum value of systolic arterial pressure during induction - incision
;Median value of systolic arterial pressure during induction - incision
;Mean value of systolic arterial pressure during arrival - induction
;Minimum value of systolic arterial pressure during arrival - induction
;Maximum value of systolic arterial pressure during arrival - induction
;Median value of systolic arterial pressure during arrival - induction
;
;Mean value of heart rate during anesthesia
;Minimum value of heart rate during anesthesia
;Maximum value of heart rate during anesthesia
;Median value of heart rate during anesthesia
;Mean value of heart rate during surgery
;Minimum value of heart rate during surgery
;Maximum value of heart rate during surgery
;Median value of heart rate during surgery
;Mean value of heart rate during induction - incision
;Minimum value of heart rate during induction - incision
;Maximum value of heart rate during induction - incision
;Median value of heart rate during induction - incision
;Mean value of heart rate during arrival - induction
;Minimum value of heart rate during arrival - induction
;Maximum value of heart rate during arrival - induction
;Median value of heart rate during arrival - induction
;
;Mean value of blood oxygen saturation during anesthesia
;Minimum value of blood oxygen saturation during anesthesia
;Maximum value of blood oxygen saturation during anesthesia
;Median value of blood oxygen saturation during anesthesia
;Mean value of blood oxygen saturation during surgery
;Minimum value of blood oxygen saturation during surgery
;Maximum value of blood oxygen saturation during surgery
;Median value of blood oxygen saturation during surgery
;Mean value of blood oxygen saturation during induction - incision
;Minimum value of blood oxygen saturation during induction - incision
;Maximum value of blood oxygen saturation during induction - incision
;Median value of blood oxygen saturation during induction - incision
;Mean value of blood oxygen saturation during arrival - induction
;Minimum value of blood oxygen saturation during arrival - induction
;Maximum value of blood oxygen saturation during arrival - induction
;Median value of blood oxygen saturation during arrival - induction
;
;Mean value of expiratory tidal volume during anesthesia
;Minimum value of expiratory tidal volume during anesthesia
;Maximum value of expiratory tidal volume during anesthesia
;Median value of expiratory tidal volume during anesthesia
;Mean value of expiratory tidal volume during surgery
;Minimum value of expiratory tidal volume during surgery
;Maximum value of expiratory tidal volume during surgery
;Median value of expiratory tidal volume during surgery
;Mean value of expiratory tidal volume during induction - incision
;Minimum value of expiratory tidal volume during induction - incision
;Maximum value of expiratory tidal volume during induction - incision
;Median value of expiratory tidal volume during induction - incision
;Mean value of expiratory tidal volume during arrival - induction
;Minimum value of expiratory tidal volume during arrival - induction
;Maximum value of expiratory tidal volume during arrival - induction
;Median value of expiratory tidal volume during arrival - induction
;
;Mean arterial pressure < 70 mmHg during anesthesia
;Duration of mean arterial pressure < 70 mmHg during anesthesia
;Mean arterial pressure < 65 mmHg during anesthesia
;Duration of mean arterial pressure < 65 mmHg during anesthesia
;Mean arterial pressure < 60 mmHg during anesthesia
;Duration of mean arterial pressure < 60 mmHg during anesthesia
;Mean arterial pressure < 55 mmHg during anesthesia
;Duration of mean arterial pressure < 55 mmHg during anesthesia
;Mean arterial pressure < 50 mmHg during anesthesia
;Duration of mean arterial pressure < 50 mmHg during anesthesia
;
;Mean arterial pressure < 70 mmHg during surgery
;Duration of mean arterial pressure < 70 mmHg during surgery
;Mean arterial pressure < 65 mmHg during surgery
;Duration of mean arterial pressure < 65 mmHg during surgery
;Mean arterial pressure < 60 mmHg during surgery
;Duration of mean arterial pressure < 60 mmHg during surgery
;Mean arterial pressure < 55 mmHg during surgery
;Duration of mean arterial pressure < 55 mmHg during surgery
;Mean arterial pressure < 50 mmHg during surgery
;Duration of mean arterial pressure < 50 mmHg during surgery
;
;Heart rate < 60 bpm during anesthesia
;Duration of heart rate < 60 bpm during anesthesia
;
;Heart rate < 60 bpm during surgery
;Duration of heart rate < 60 bpm during surgery
;
;Blood oxygen saturation < 90 % during anesthesia
;Duration of blood oxygen saturation < 90 % during anesthesia
;
;Blood oxygen saturation < 90 % during surgery
;Duration of blood oxygen saturation < 90 % during surgery
